<svg id="vuesax_linear_minus-cirlce" data-name="vuesax/linear/minus-cirlce" xmlns="http://www.w3.org/2000/svg" width="82" height="82" viewBox="0 0 82 82">
  <g id="minus-cirlce">
    <path id="Vector" d="M34.167,68.333A34.167,34.167,0,1,0,0,34.167,34.267,34.267,0,0,0,34.167,68.333Z" transform="translate(6.56 6.833)" fill="none" stroke="#e40000" stroke-linecap="round" stroke-linejoin="round" stroke-width="3"/>
    <path id="Vector-2" data-name="Vector" d="M0,0H27.333" transform="translate(27.06 41)" fill="none" stroke="#e40000" stroke-linecap="round" stroke-linejoin="round" stroke-width="3"/>
    <path id="Vector-3" data-name="Vector" d="M0,0H82V82H0Z" fill="none" opacity="0"/>
  </g>
</svg>
