<svg id="global-edit" xmlns="http://www.w3.org/2000/svg" width="27.523" height="27.523" viewBox="0 0 27.523 27.523">
  <path id="Vector" d="M0,0H27.523V27.523H0Z" transform="translate(27.523 27.523) rotate(180)" fill="none" opacity="0"/>
  <g id="Group" transform="translate(16.043 16.054)">
    <path id="Vector-2" data-name="Vector" d="M5.436.77.677,5.529a1.734,1.734,0,0,0-.4.791L.012,8.143A.853.853,0,0,0,1.032,9.164L2.856,8.9a1.63,1.63,0,0,0,.791-.4L8.406,3.74a1.838,1.838,0,0,0,0-2.982A1.828,1.828,0,0,0,5.436.77Z" transform="translate(0 0)" fill="#414042"/>
    <path id="Vector-3" data-name="Vector" d="M0,0A4.313,4.313,0,0,0,2.982,2.982" transform="translate(4.759 1.446)" fill="#414042"/>
  </g>
  <path id="Vector-4" data-name="Vector" d="M.023,0C.023.034,0,.08,0,.115A10.887,10.887,0,0,0,4.885,5c.034,0,.08-.023.115-.023A32.916,32.916,0,0,1,4.094.917,34.854,34.854,0,0,1,.023,0Z" transform="translate(2.305 16.777)" fill="#414042" opacity="0.4"/>
  <path id="Vector-5" data-name="Vector" d="M5.149,5.149A10.894,10.894,0,0,0,0,0,32.75,32.75,0,0,1,.986,4.163,30.905,30.905,0,0,1,5.149,5.149Z" transform="translate(16.72 2.225)" fill="#414042" opacity="0.4"/>
  <path id="Vector-6" data-name="Vector" d="M0,5.057a33.391,33.391,0,0,1,4.174-.986A34.967,34.967,0,0,1,5.08.023C5.046.023,5,0,4.966,0A10.94,10.94,0,0,0,0,5.057Z" transform="translate(2.213 2.316)" fill="#414042" opacity="0.4"/>
  <path id="Vector-7" data-name="Vector" d="M7.615,5.011A31.251,31.251,0,0,0,6.5.585,1.521,1.521,0,0,1,6.468.344,11.273,11.273,0,0,0,3.807,0,10.8,10.8,0,0,0,1.135.344a1.888,1.888,0,0,1-.023.241A32.891,32.891,0,0,0,0,5.011,35.215,35.215,0,0,1,7.615,5.011Z" transform="translate(8.234 1.135)" fill="#414042" opacity="0.4"/>
  <path id="Vector-8" data-name="Vector" d="M5.011,0A30.864,30.864,0,0,0,.585,1.112a1.522,1.522,0,0,1-.241.034A11.273,11.273,0,0,0,0,3.807,10.8,10.8,0,0,0,.344,6.479,1.888,1.888,0,0,1,.585,6.5,32.463,32.463,0,0,0,5.011,7.615,35.215,35.215,0,0,1,5.011,0Z" transform="translate(1.135 8.234)" fill="#414042" opacity="0.4"/>
  <path id="Vector-9" data-name="Vector" d="M4.667,1.147a.938.938,0,0,1-.241-.034A32.891,32.891,0,0,0,0,0,33.713,33.713,0,0,1,0,7.6,31.251,31.251,0,0,0,4.427,6.491a1.561,1.561,0,0,1,.241-.023A11.369,11.369,0,0,0,5.011,3.8,10.757,10.757,0,0,0,4.667,1.147Z" transform="translate(17.924 8.234)" fill="#414042" opacity="0.4"/>
  <path id="Vector-10" data-name="Vector" d="M0,0A30.864,30.864,0,0,0,1.112,4.427a1.561,1.561,0,0,1,.023.241,11.369,11.369,0,0,0,2.672.344,10.707,10.707,0,0,0,2.661-.344A2.026,2.026,0,0,1,6.5,4.427,32.462,32.462,0,0,0,7.615,0,35.164,35.164,0,0,1,3.807.241C2.534.229,1.261.138,0,0Z" transform="translate(8.234 17.936)" fill="#414042" opacity="0.4"/>
  <path id="Vector-11" data-name="Vector" d="M.258.258a32.336,32.336,0,0,0,0,8.154,32.336,32.336,0,0,0,8.154,0,32.336,32.336,0,0,0,0-8.154A32.336,32.336,0,0,0,.258.258Z" transform="translate(7.712 7.712)" fill="#414042" opacity="0.4"/>
</svg>
