<svg id="card-tick_linear" data-name="card-tick/linear" xmlns="http://www.w3.org/2000/svg" width="139.705" height="139.705" viewBox="0 0 139.705 139.705">
  <g id="vuesax_linear_card-tick" data-name="vuesax/linear/card-tick">
    <g id="card-tick">
      <path id="Vector" d="M0,0H66.942" transform="translate(11.642 49.479)" fill="none" stroke="#878da0" stroke-linecap="round" stroke-linejoin="round" stroke-width="5"/>
      <path id="Vector-2" data-name="Vector" d="M0,0H11.642" transform="translate(34.926 96.047)" fill="none" stroke="#878da0" stroke-linecap="round" stroke-linejoin="round" stroke-width="5"/>
      <path id="Vector-3" data-name="Vector" d="M0,0H23.284" transform="translate(61.121 96.047)" fill="none" stroke="#878da0" stroke-linecap="round" stroke-linejoin="round" stroke-width="5"/>
      <path id="Vector-4" data-name="Vector" d="M116.421,43.832V73.4c0,20.432-5.181,25.554-25.845,25.554H25.845C5.181,98.958,0,93.835,0,73.4V25.554C0,5.123,5.181,0,25.845,0h41.1" transform="translate(11.642 20.374)" fill="none" stroke="#878da0" stroke-linecap="round" stroke-linejoin="round" stroke-width="5"/>
      <path id="Vector-5" data-name="Vector" d="M0,14.553l8.732,8.732L32.016,0" transform="translate(96.047 20.374)" fill="none" stroke="#878da0" stroke-linecap="round" stroke-linejoin="round" stroke-width="5"/>
      <path id="Vector-6" data-name="Vector" d="M0,0H139.705V139.705H0Z" fill="none" opacity="0"/>
    </g>
  </g>
</svg>
