<svg id="noun-qr-code-1474695" xmlns="http://www.w3.org/2000/svg" width="118.648" height="118.648" viewBox="0 0 118.648 118.648">
  <path id="Path_67651" data-name="Path 67651" d="M38.707,0h14.38V10.786h7.19V7.19h3.6v7.192h-3.6v3.6H56.683v-3.6h-7.19v-3.6H38.707v3.6H31.515v-3.6h3.594V7.19H42.3V3.6H38.707Z" transform="translate(26.011)"/>
  <path id="Path_67652" data-name="Path 67652" d="M0,0V25.168H25.168V0ZM21.572,21.572H3.6V3.6H21.572Z"/>
  <rect id="Rectangle_27959" data-name="Rectangle 27959" width="3.594" height="3.596" transform="translate(57.526 3.596)"/>
  <path id="Path_67653" data-name="Path 67653" d="M51.212,0V25.168H76.38V0ZM72.784,21.572H54.806V3.6H72.784Z" transform="translate(42.268)"/>
  <rect id="Rectangle_27960" data-name="Rectangle 27960" width="10.786" height="10.786" transform="translate(7.19 7.19)"/>
  <rect id="Rectangle_27961" data-name="Rectangle 27961" width="10.786" height="10.786" transform="translate(100.67 7.19)"/>
  <path id="Path_67654" data-name="Path 67654" d="M33.734,5.564V1.97h-7.19v3.6H15.758v7.19h3.6V9.16h3.594v7.19H19.354v3.594h3.594V34.326h3.6V30.732h3.6v3.594h3.6v-7.19h-3.6v-3.6h-3.6v-3.6h3.6v3.6h3.6v-3.6h3.6V9.16h3.6v-3.6Zm0,7.192h-7.19V9.16h7.19Z" transform="translate(13.006 1.626)"/>
  <path id="Path_67655" data-name="Path 67655" d="M29.545,7.879h3.6v3.6h3.594v7.19h3.6V7.879h3.594v3.6h3.6v-3.6h3.6V18.665h-3.6v-3.6h-3.6v3.6h3.6v7.192h-3.6v-3.6H33.141V15.069h-3.6Z" transform="translate(24.385 6.503)"/>
  <rect id="Rectangle_27962" data-name="Rectangle 27962" width="3.596" height="7.19" transform="translate(86.288 17.978)"/>
  <rect id="Rectangle_27963" data-name="Rectangle 27963" width="3.596" height="3.596" transform="translate(28.764 21.572)"/>
  <rect id="Rectangle_27964" data-name="Rectangle 27964" width="3.596" height="3.596" transform="translate(50.336 21.572)"/>
  <rect id="Rectangle_27965" data-name="Rectangle 27965" width="3.596" height="3.596" transform="translate(46.74 25.168)"/>
  <path id="Path_67656" data-name="Path 67656" d="M5.909,15.758H13.1v3.6H9.5v3.594h-3.6Z" transform="translate(4.877 13.006)"/>
  <path id="Path_67657" data-name="Path 67657" d="M11.818,15.758H19.01v3.6h3.6v3.594H15.414V19.354h-3.6Z" transform="translate(9.754 13.006)"/>
  <path id="Path_67658" data-name="Path 67658" d="M27.576,15.758h7.19v14.38h-3.6V19.354H27.576Z" transform="translate(22.76 13.006)"/>
  <path id="Path_67659" data-name="Path 67659" d="M60.372,15.758h7.192v7.19h7.19v3.6h-7.19v3.594h-3.6v-7.19H53.182V19.354h7.19Z" transform="translate(43.894 13.006)"/>
  <path id="Path_67660" data-name="Path 67660" d="M33.484,17.728h7.192v7.19H37.082v-3.6h-3.6Z" transform="translate(27.636 14.632)"/>
  <path id="Path_67661" data-name="Path 67661" d="M39.394,17.728h3.6v3.594h3.594v3.6h-7.19Z" transform="translate(32.514 14.632)"/>
  <rect id="Rectangle_27966" data-name="Rectangle 27966" width="3.596" height="3.594" transform="translate(89.884 32.36)"/>
  <rect id="Rectangle_27967" data-name="Rectangle 27967" width="3.596" height="3.596" transform="translate(7.19 35.954)"/>
  <path id="Path_67662" data-name="Path 67662" d="M7.879,19.7H18.665v3.6h-3.6v3.594H11.475V23.293h-3.6Z" transform="translate(6.503 16.257)"/>
  <rect id="Rectangle_27968" data-name="Rectangle 27968" width="3.596" height="3.596" transform="translate(93.48 35.954)"/>
  <rect id="Rectangle_27969" data-name="Rectangle 27969" width="3.596" height="3.596" transform="translate(10.786 39.55)"/>
  <rect id="Rectangle_27970" data-name="Rectangle 27970" width="3.598" height="3.596" transform="translate(61.12 39.55)"/>
  <rect id="Rectangle_27971" data-name="Rectangle 27971" width="3.596" height="3.596" transform="translate(3.596 43.144)"/>
  <rect id="Rectangle_27972" data-name="Rectangle 27972" width="3.596" height="3.596" transform="translate(21.572 43.144)"/>
  <rect id="Rectangle_27973" data-name="Rectangle 27973" width="7.19" height="3.596" transform="translate(89.884 43.144)"/>
  <rect id="Rectangle_27974" data-name="Rectangle 27974" width="3.596" height="3.596" transform="translate(100.67 43.144)"/>
  <rect id="Rectangle_27975" data-name="Rectangle 27975" width="3.596" height="3.596" transform="translate(115.052 43.144)"/>
  <path id="Path_67663" data-name="Path 67663" d="M49.053,30.483v-3.6h-3.6v-3.6h-3.6v3.6h-3.6V19.7h-3.6v3.6H20.289v3.6h3.6v3.6h3.6v-3.6h7.19v3.6h-3.6v3.6H16.693v-3.6H5.909v3.6H9.5v3.6h3.6V48.463H16.7v-3.6h3.6v3.6H16.7v3.594h7.192v7.192h3.6V48.463h-3.6v-7.19H16.7v-3.6H27.483v3.6h3.594v3.594h3.6V41.273h3.6v3.594h3.6v7.19h-3.6V62.843h3.6v-7.19h7.19v-3.6h3.6v-7.19h-3.6v3.6h-3.6v-7.19h3.6v-7.19h3.6v3.6h3.594V30.489H49.053Zm-3.594,7.192H34.673v-3.6h3.6v-3.6h3.6v3.6h3.6v3.6Z" transform="translate(4.877 16.257)"/>
  <rect id="Rectangle_27976" data-name="Rectangle 27976" width="3.594" height="3.596" transform="translate(64.718 46.74)"/>
  <rect id="Rectangle_27977" data-name="Rectangle 27977" width="3.598" height="3.596" transform="translate(71.908 46.74)"/>
  <rect id="Rectangle_27978" data-name="Rectangle 27978" width="3.596" height="3.596" transform="translate(7.19 50.336)"/>
  <path id="Path_67664" data-name="Path 67664" d="M37.424,27.576h3.6v3.6h3.6v3.6H37.424Z" transform="translate(30.888 22.76)"/>
  <rect id="Rectangle_27979" data-name="Rectangle 27979" width="3.598" height="3.596" transform="translate(61.12 53.932)"/>
  <path id="Path_67665" data-name="Path 67665" d="M0,31.516H10.786v7.19H7.19v-3.6H3.6V42.3H7.19v3.6H3.6v14.38h7.19v3.6H0Z" transform="translate(0 26.012)"/>
  <rect id="Rectangle_27980" data-name="Rectangle 27980" width="3.594" height="3.594" transform="translate(57.526 57.528)"/>
  <path id="Path_67666" data-name="Path 67666" d="M37.424,33.484h7.192v3.6H48.21v-3.6h3.6v3.6H59v3.594h3.6v3.6H55.4v-3.6H44.616v7.192H37.424v-3.6h3.6v-7.19h-3.6Z" transform="translate(30.888 27.636)"/>
  <path id="Path_67667" data-name="Path 67667" d="M77.318,51.368V47.774h3.6v-3.6h-3.6V36.986h-7.19v3.6h3.6v7.19h-3.6v-7.19h-3.6v7.19h-3.6v-7.19h-3.6v7.19h-3.6V36.984h-3.6v-3.6h3.6V26.2h-3.6V22.6h3.6v-3.6h-3.6v-3.6h-3.6v-3.6h-3.6v7.192h3.6v3.6h-3.6V26.2h3.6v7.19H41.364v3.6h3.594v7.192h3.6v-3.6h3.6v3.6h-3.6v7.188H59.34v3.6h7.19v3.594h3.6v3.6H80.912v-3.6h-3.6V54.962h3.6v3.594h3.6v-7.19h-7.19Zm-3.6,3.6h-3.6v-3.6h3.6Z" transform="translate(34.14 9.752)"/>
  <rect id="Rectangle_27981" data-name="Rectangle 27981" width="3.596" height="3.594" transform="translate(14.382 64.718)"/>
  <path id="Path_67668" data-name="Path 67668" d="M19.7,35.455h7.19v3.594H23.293v7.192H19.7Z" transform="translate(16.257 29.263)"/>
  <rect id="Rectangle_27982" data-name="Rectangle 27982" width="3.596" height="3.596" transform="translate(10.786 68.312)"/>
  <rect id="Rectangle_27983" data-name="Rectangle 27983" width="3.594" height="3.596" transform="translate(57.526 68.312)"/>
  <rect id="Rectangle_27984" data-name="Rectangle 27984" width="7.19" height="3.598" transform="translate(17.978 71.908)"/>
  <rect id="Rectangle_27985" data-name="Rectangle 27985" width="3.596" height="3.598" transform="translate(115.052 71.908)"/>
  <path id="Path_67669" data-name="Path 67669" d="M7.535,41.364h3.6v7.19H3.939v-3.6h3.6Z" transform="translate(3.251 34.14)"/>
  <path id="Path_67670" data-name="Path 67670" d="M22.606,41.364H26.2v7.19h3.6v7.19H26.2v-3.6H19.01V48.554H11.818v-3.6H22.606Z" transform="translate(9.754 34.14)"/>
  <path id="Path_67671" data-name="Path 67671" d="M27.576,41.364h7.19v3.594H38.36v3.6H27.576Z" transform="translate(22.76 34.14)"/>
  <rect id="Rectangle_27986" data-name="Rectangle 27986" width="3.598" height="3.594" transform="translate(61.12 75.504)"/>
  <rect id="Rectangle_27987" data-name="Rectangle 27987" width="3.596" height="3.594" transform="translate(86.288 75.504)"/>
  <rect id="Rectangle_27988" data-name="Rectangle 27988" width="3.596" height="3.594" transform="translate(100.67 75.504)"/>
  <rect id="Rectangle_27989" data-name="Rectangle 27989" width="3.596" height="3.596" transform="translate(39.55 79.098)"/>
  <path id="Path_67672" data-name="Path 67672" d="M57.121,43.333H71.5v3.6h-7.19v3.594h-3.6V46.929h-3.6Z" transform="translate(47.145 35.765)"/>
  <rect id="Rectangle_27990" data-name="Rectangle 27990" width="3.596" height="3.596" transform="translate(46.74 82.694)"/>
  <rect id="Rectangle_27991" data-name="Rectangle 27991" width="7.192" height="3.596" transform="translate(21.572 86.288)"/>
  <rect id="Rectangle_27992" data-name="Rectangle 27992" width="3.596" height="3.596" transform="translate(43.144 86.288)"/>
  <rect id="Rectangle_27993" data-name="Rectangle 27993" width="3.596" height="3.596" transform="translate(50.336 86.288)"/>
  <rect id="Rectangle_27994" data-name="Rectangle 27994" width="3.596" height="3.596" transform="translate(115.052 86.288)"/>
  <path id="Path_67673" data-name="Path 67673" d="M15.758,49.242h7.19v3.6H19.354v3.6h-3.6Z" transform="translate(13.006 40.642)"/>
  <rect id="Rectangle_27995" data-name="Rectangle 27995" width="3.596" height="3.596" transform="translate(93.48 93.48)"/>
  <path id="Path_67674" data-name="Path 67674" d="M0,51.212V76.38H25.168V51.212ZM21.572,72.784H3.6V54.806H21.572Z" transform="translate(0 42.268)"/>
  <rect id="Rectangle_27996" data-name="Rectangle 27996" width="3.596" height="7.19" transform="translate(115.052 97.076)"/>
  <rect id="Rectangle_27997" data-name="Rectangle 27997" width="10.786" height="10.786" transform="translate(7.19 100.67)"/>
  <path id="Path_67675" data-name="Path 67675" d="M15.758,55.151h7.19V69.533H19.354v-7.19h-3.6Z" transform="translate(13.006 45.519)"/>
  <path id="Path_67676" data-name="Path 67676" d="M93.577,62.592V59h-3.6V55.4h-3.6V51.8h-7.19V44.616h3.6V37.424h-3.6v3.6H75.6V51.806h-7.19v-3.6h-3.6V44.616h-3.6V48.21H46.837V55.4h3.594V51.8h3.6v3.6h3.6V51.8h7.188V66.186H57.625v3.6h-3.6v7.19h-3.6v7.19H46.837v-7.19h-3.6v-3.6h3.6v-3.6h-3.6v-3.6H54.025v-3.6h7.19v-3.6H43.237V55.4H39.643v7.19h-7.19v-3.6h-3.6v3.6h-3.6v-3.6h-3.6v7.19h3.6v3.6h3.6v-3.6H39.643v3.6H28.857v3.6H39.643v7.19h-3.6v-3.6h-7.19v7.19h3.6v3.6h3.6v-3.6h3.6v3.6h14.38V80.57h7.19v3.6H57.621V87.76h7.188v-3.6h3.6v-3.6h-3.6v-7.19H89.977v-3.6h3.6v-3.6h-7.19v-3.6h7.194ZM61.217,76.974H57.623v-3.6h3.594Zm21.572-7.192H72V59H82.789Z" transform="translate(17.881 30.888)"/>
  <path id="Path_67677" data-name="Path 67677" d="M61.061,57.121h3.594v3.6h3.6v7.19h-7.19Z" transform="translate(50.397 47.145)"/>
  <rect id="Rectangle_27998" data-name="Rectangle 27998" width="3.596" height="3.596" transform="translate(39.55 107.862)"/>
  <path id="Path_67678" data-name="Path 67678" d="M49.242,59.091h3.6v3.6h3.6v3.594H49.242Z" transform="translate(40.642 48.771)"/>
  <path id="Path_67679" data-name="Path 67679" d="M55.151,59.091h7.192v7.19h-3.6V62.687h-3.6Z" transform="translate(45.519 48.771)"/>
  <rect id="Rectangle_27999" data-name="Rectangle 27999" width="7.19" height="3.596" transform="translate(39.55 115.052)"/>
  <rect id="Rectangle_28000" data-name="Rectangle 28000" width="3.596" height="3.596" transform="translate(86.288 115.052)"/>
  <rect id="Rectangle_28001" data-name="Rectangle 28001" width="3.596" height="3.596" transform="translate(97.076 115.052)"/>
  <rect id="Rectangle_28002" data-name="Rectangle 28002" width="3.596" height="3.596" transform="translate(107.862 115.052)"/>
</svg>
